<svg class="icon myanimelist" fill="currentColor" height="256" viewbox="0 0 256 256" width="256" xmlns="http://www.w3.org/2000/svg">
    <path clip-rule="evenodd" d="M256 0H0V256H256V0ZM31 157V122.5V88H40.344H49.688L56.409 97.481C60.105 102.696 63.521 107.204 63.999 107.499C64.477 107.795 68.341 103.529 72.584 98.018L80.3 88H89.65H99V122.5V157H90.02H81.041L80.77 136.579L80.5 116.157L72.586 125.615C68.234 130.817 64.331 134.719 63.914 134.286C63.496 133.854 59.97 129.506 56.077 124.625L49 115.75V136.375V157H40H31ZM111.008 110.708C114.739 100.736 122.672 93.808 134.798 89.931C139.109 88.552 143.806 88.094 154.053 88.054L167.606 88L169.803 94.821C171.011 98.572 172 101.898 172 102.212C172 102.525 165.28 102.946 157.066 103.146C143.791 103.47 141.82 103.744 139.316 105.61C136.161 107.962 133.477 112.127 132.461 116.25L131.783 119H140.392H149V112V105H159H169V131.5V158H159H149V146V134H138.5C129.016 134 128 134.176 128 135.818C128 138.692 131.006 148.071 133.515 153.026L135.807 157.553L128.356 162.429C123.975 165.296 120.543 166.933 120.027 166.402C118.527 164.86 112.9 149.866 110.903 142.09C108.278 131.867 108.325 117.88 111.008 110.708ZM183 157V122.5V88H192H201V115V142H213.617C226.21 142 226.232 142.004 225.639 144.25C225.312 145.488 224.512 148.863 223.863 151.75L222.682 157H202.841H183Z" fill-rule="evenodd" fill="currentColor"/>
</svg>
